﻿biomes.png=2518802987
dtm.raw=1411630782
dtm_processed.raw=790079964
main.ttw=2482489645
map_info.xml=813141377
prefabs.xml=1086812629
radiation.png=2483220893
spawnpoints.xml=1225969103
splat3.png=3152379044
splat3_processed.png=1047583083
splat4.png=3623849483
splat4_processed.png=227847052
